<?xml version="1.0"?>
<gpx version="1.1" creator="Xcode">
    
    <wpt lat="49.27805" lon="-122.91077">
    </wpt>
    <wpt lat="49.27894" lon="-122.91044">
    </wpt>
    <wpt lat="49.27936" lon="-122.91028">
    </wpt>
    <wpt lat="49.27949" lon="-122.91019">
    </wpt>
    <wpt lat="49.27963" lon="-122.91006">
    </wpt>
    <wpt lat="49.27972" lon="-122.90993">
    </wpt>
    <wpt lat="49.27982" lon="-122.90976">
    </wpt>
    <wpt lat="49.27985" lon="-122.90972">
    </wpt>
    <wpt lat="49.27998" lon="-122.90939">
    </wpt>
    <wpt lat="49.28006" lon="-122.90911">
    </wpt>
    <wpt lat="49.2801" lon="-122.90892">
    </wpt>
    <wpt lat="49.28012" lon="-122.90878">
    </wpt>
    <wpt lat="49.28013" lon="-122.90869">
    </wpt>
    <wpt lat="49.28013" lon="-122.90859">
    </wpt>
    <wpt lat="49.28012" lon="-122.90836">
    </wpt>
    <wpt lat="49.28006" lon="-122.90795">
    </wpt>
    <wpt lat="49.27991" lon="-122.9072">
    </wpt>
    <wpt lat="49.2799" lon="-122.90714">
    </wpt>
    <wpt lat="49.27976" lon="-122.90642">
    </wpt>
    <wpt lat="49.27967" lon="-122.90598">
    </wpt>
    <wpt lat="49.27964" lon="-122.90585">
    </wpt>
    <wpt lat="49.27964" lon="-122.90582">
    </wpt>
    <wpt lat="49.2796" lon="-122.90565">
    </wpt>
    <wpt lat="49.27952" lon="-122.90541">
    </wpt>
    <wpt lat="49.27948" lon="-122.90529">
    </wpt>
    <wpt lat="49.27943" lon="-122.90518">
    </wpt>
    <wpt lat="49.27941" lon="-122.90515">
    </wpt>
    <wpt lat="49.27943" lon="-122.9052">
    </wpt>
    <wpt lat="49.27943" lon="-122.90518">
    </wpt>
    <wpt lat="49.27936" lon="-122.90506">
    </wpt>
    <wpt lat="49.2793" lon="-122.90495">
    </wpt>
    <wpt lat="49.27924" lon="-122.90486">
    </wpt>
    <wpt lat="49.27911" lon="-122.90469">
    </wpt>
    <wpt lat="49.27896" lon="-122.90454">
    </wpt>
    <wpt lat="49.27881" lon="-122.90442">
    </wpt>
    <wpt lat="49.27865" lon="-122.90433">
    </wpt>
    <wpt lat="49.27853" lon="-122.90428">
    </wpt>
    <wpt lat="49.27849" lon="-122.90426">
    </wpt>
    <wpt lat="49.27828" lon="-122.90423">
    </wpt>
    <wpt lat="49.27818" lon="-122.90423">
    </wpt>
    <wpt lat="49.27802" lon="-122.90424">
    </wpt>
    <wpt lat="49.27796" lon="-122.90427">
    </wpt>
    <wpt lat="49.27788" lon="-122.90429">
    </wpt>
    <wpt lat="49.27773" lon="-122.90436">
    </wpt>
    <wpt lat="49.27758" lon="-122.90447">
    </wpt>
    <wpt lat="49.27756" lon="-122.90449">
    </wpt>
    <wpt lat="49.27743" lon="-122.90462">
    </wpt>
    <wpt lat="49.27728" lon="-122.90478">
    </wpt>
    <wpt lat="49.27712" lon="-122.90497">
    </wpt>
    <wpt lat="49.27681" lon="-122.90536">
    </wpt>
    <wpt lat="49.27681" lon="-122.90536">
    </wpt>
    <wpt lat="49.27698" lon="-122.9057">
    </wpt>
    <wpt lat="49.27716" lon="-122.90607">
    </wpt>
    <wpt lat="49.27723" lon="-122.90624">
    </wpt>
    <wpt lat="49.2773" lon="-122.9064">
    </wpt>
    <wpt lat="49.27734" lon="-122.90652">
    </wpt>
    <wpt lat="49.27738" lon="-122.90666">
    </wpt>
    <wpt lat="49.27743" lon="-122.90681">
    </wpt>
    <wpt lat="49.27747" lon="-122.90697">
    </wpt>
    <wpt lat="49.27752" lon="-122.90722">
    </wpt>
    <wpt lat="49.27752" lon="-122.90724">
    </wpt>
    <wpt lat="49.27754" lon="-122.90732">
    </wpt>
    <wpt lat="49.27761" lon="-122.90772">
    </wpt>
    <wpt lat="49.2777" lon="-122.90832">
    </wpt>
    <wpt lat="49.27781" lon="-122.90904">
    </wpt>
    <wpt lat="49.2778" lon="-122.90928">
    </wpt>
    <wpt lat="49.27805" lon="-122.91077">
    </wpt>
    <wpt lat="49.27805" lon="-122.91077">
    </wpt>
    
    
    
</gpx>
